<svg width="60" height="60" viewBox="0 0 60 60" fill="none" xmlns="http://www.w3.org/2000/svg">
<rect width="60" height="60" fill="#333333"/>
<circle cx="30" cy="30" r="19.5" fill="#F2F2F2" stroke="black"/>
</svg>
